ANUL3/sem2/pdp/lab3_final/registru/simulation/qsim/registru.msim.vcd
$comment
	File created using the following command:
		vcd file registru.msim.vcd -direction
$end
$date
	Sat Mar 29 10:09:13 2025
$end
$version
	ModelSim Version 10.5b
$end
$timescale
	1ps
$end

$scope module registru_vhd_vec_tst $end
$var wire 1 ! CLK $end
$var wire 1 " RESET $end
$var wire 1 # SERIAL_IN $end
$var wire 1 $ SERIAL_OUT $end
$var wire 1 % SHIFT_EN $end

$scope module i1 $end
$var wire 1 & gnd $end
$var wire 1 ' vcc $end
$var wire 1 ( unknown $end
$var wire 1 ) devoe $end
$var wire 1 * devclrn $end
$var wire 1 + devpor $end
$var wire 1 , ww_devoe $end
$var wire 1 - ww_devclrn $end
$var wire 1 . ww_devpor $end
$var wire 1 / ww_CLK $end
$var wire 1 0 ww_RESET $end
$var wire 1 1 ww_SHIFT_EN $end
$var wire 1 2 ww_SERIAL_IN $end
$var wire 1 3 ww_SERIAL_OUT $end
$var wire 1 4 \CLK~inputclkctrl_INCLK_bus\ [3] $end
$var wire 1 5 \CLK~inputclkctrl_INCLK_bus\ [2] $end
$var wire 1 6 \CLK~inputclkctrl_INCLK_bus\ [1] $end
$var wire 1 7 \CLK~inputclkctrl_INCLK_bus\ [0] $end
$var wire 1 8 \SERIAL_OUT~output_o\ $end
$var wire 1 9 \CLK~input_o\ $end
$var wire 1 : \CLK~inputclkctrl_outclk\ $end
$var wire 1 ; \RESET~input_o\ $end
$var wire 1 < \SERIAL_IN~input_o\ $end
$var wire 1 = \reg_data~5_combout\ $end
$var wire 1 > \SHIFT_EN~input_o\ $end
$var wire 1 ? \reg_data[0]~1_combout\ $end
$var wire 1 @ \reg_data~4_combout\ $end
$var wire 1 A \reg_data~3_combout\ $end
$var wire 1 B \reg_data~2_combout\ $end
$var wire 1 C \reg_data~0_combout\ $end
$var wire 1 D reg_data [4] $end
$var wire 1 E reg_data [3] $end
$var wire 1 F reg_data [2] $end
$var wire 1 G reg_data [1] $end
$var wire 1 H reg_data [0] $end
$upscope $end
$upscope $end
$enddefinitions $end
#0
$dumpvars
0!
0"
0#
0$
0%
0&
1'
x(
1)
1*
1+
1,
1-
1.
0/
00
01
02
03
08
09
0:
0;
0<
0=
0>
0?
0@
0A
0B
0C
0D
0E
0F
0G
0H
14
15
16
07
$end
#10000
1!
1/
19
17
1:
#20000
0!
0/
09
07
0:
#30000
1!
1/
19
17
1:
#40000
0!
0/
09
07
0:
#50000
1!
1/
19
17
1:
#60000
0!
0/
09
07
0:
#70000
1!
1/
19
17
1:
#80000
0!
0/
09
07
0:
#90000
1!
1%
1#
1/
11
12
1<
1>
19
17
1?
1=
1:
1D
1@
#100000
0!
0/
09
07
0:
#110000
1!
1/
19
17
1:
1E
1A
#120000
0!
0/
09
07
0:
#130000
1!
1/
19
17
1:
1F
1B
#140000
0!
0/
09
07
0:
#150000
1!
1/
19
17
1:
1G
1C
#160000
0!
0/
09
07
0:
#170000
1!
1/
19
17
1:
1H
18
13
1$
#180000
0!
0/
09
07
0:
#190000
1!
1/
19
17
1:
#200000
0!
0/
09
07
0:
#210000
1!
1/
19
17
1:
#220000
0!
0#
0/
02
0<
09
07
0=
0:
#230000
1!
1/
19
17
1:
0D
0@
#240000
0!
0/
09
07
0:
#250000
1!
1/
19
17
1:
0E
0A
#260000
0!
0/
09
07
0:
#270000
1!
1/
19
17
1:
0F
0B
#280000
0!
0/
09
07
0:
#290000
1!
1/
19
17
1:
0G
0C
#300000
0!
1#
0/
12
1<
09
07
1=
0:
#310000
1!
1/
19
17
1:
1D
0H
1@
08
03
0$
#320000
0!
0/
09
07
0:
#330000
1!
0#
1/
02
0<
19
17
0=
1:
0D
1E
1A
0@
#340000
0!
0/
09
07
0:
#350000
1!
1#
1/
12
1<
19
17
1=
1:
1D
0E
1F
1B
0A
1@
#360000
0!
0/
09
07
0:
#370000
1!
1/
19
17
1:
1E
0F
1G
1C
0B
1A
#380000
0!
0#
0/
02
0<
09
07
0=
0:
#390000
1!
1/
19
17
1:
0D
1F
0G
1H
0C
1B
0@
18
13
1$
#400000
0!
0/
09
07
0:
#410000
1!
1/
19
17
1:
0E
1G
0H
1C
0A
08
03
0$
#420000
0!
0/
09
07
0:
#430000
1!
1/
19
17
1:
0F
1H
0B
18
13
1$
#440000
0!
1#
0/
12
1<
09
07
1=
0:
#450000
1!
1/
19
17
1:
1D
0G
0C
1@
#460000
0!
0#
0/
02
0<
09
07
0=
0:
#470000
1!
1/
19
17
1:
0D
1E
0H
1A
0@
08
03
0$
#480000
0!
0/
09
07
0:
#490000
1!
1#
1/
12
1<
19
17
1=
1:
1D
0E
1F
1B
0A
1@
#500000
0!
0/
09
07
0:
#510000
1!
1/
19
17
1:
1E
0F
1G
1C
0B
1A
#520000
0!
0/
09
07
0:
#530000
1!
0#
1/
02
0<
19
17
0=
1:
0D
1F
0G
1H
0C
1B
0@
18
13
1$
#540000
0!
0/
09
07
0:
#550000
1!
1/
19
17
1:
0E
1G
0H
1C
0A
08
03
0$
#560000
0!
0/
09
07
0:
#570000
1!
1/
19
17
1:
0F
1H
0B
18
13
1$
#580000
0!
1#
0/
12
1<
09
07
1=
0:
#590000
1!
1/
19
17
1:
1D
0G
0C
1@
#600000
0!
0/
09
07
0:
#610000
1!
1/
19
17
1:
1E
0H
1A
08
03
0$
#620000
0!
1"
0/
10
1;
09
07
0=
0@
0A
0:
#630000
1!
1/
19
17
1:
0D
0E
#640000
0!
0/
09
07
0:
#650000
1!
1/
19
17
1:
#660000
0!
0/
09
07
0:
#670000
1!
0"
1/
00
0;
19
17
1=
1:
1D
1@
#680000
0!
0/
09
07
0:
#690000
1!
0#
1/
02
0<
19
17
0=
1:
0D
1E
1A
0@
#700000
0!
0/
09
07
0:
#710000
1!
1/
19
17
1:
0E
1F
1B
0A
#720000
0!
0/
09
07
0:
#730000
1!
1/
19
17
1:
0F
1G
1C
0B
#740000
0!
0/
09
07
0:
#750000
1!
1/
19
17
1:
0G
1H
0C
18
13
1$
#760000
0!
0/
09
07
0:
#770000
1!
1/
19
17
1:
0H
08
03
0$
#780000
0!
0/
09
07
0:
#790000
1!
1/
19
17
1:
#800000
0!
0/
09
07
0:
#810000
1!
1/
19
17
1:
#820000
0!
0/
09
07
0:
#830000
1!
1/
19
17
1:
#840000
0!
0/
09
07
0:
#850000
1!
1/
19
17
1:
#860000
0!
0/
09
07
0:
#870000
1!
1/
19
17
1:
#880000
0!
0/
09
07
0:
#890000
1!
1/
19
17
1:
#900000
0!
0/
09
07
0:
#910000
1!
1/
19
17
1:
#920000
0!
0/
09
07
0:
#930000
1!
1/
19
17
1:
#940000
0!
0/
09
07
0:
#950000
1!
1/
19
17
1:
#960000
0!
0/
09
07
0:
#970000
1!
1/
19
17
1:
#980000
0!
0%
0/
01
0>
09
07
0?
0:
#990000
1!
1/
19
17
1:
