ANUL3/sem2/pdp/lab3_final/numarator/simulation/qsim/numarator.msim.vcd
$comment
	File created using the following command:
		vcd file numarator.msim.vcd -direction
$end
$date
	Sat Mar 29 10:11:04 2025
$end
$version
	ModelSim Version 10.5b
$end
$timescale
	1ps
$end

$scope module numarator_vhd_vec_tst $end
$var wire 1 ! CLK $end
$var wire 1 " D [3] $end
$var wire 1 # D [2] $end
$var wire 1 $ D [1] $end
$var wire 1 % D [0] $end
$var wire 1 & LOAD $end
$var wire 1 ' Q [3] $end
$var wire 1 ( Q [2] $end
$var wire 1 ) Q [1] $end
$var wire 1 * Q [0] $end
$var wire 1 + RESET $end

$scope module i1 $end
$var wire 1 , gnd $end
$var wire 1 - vcc $end
$var wire 1 . unknown $end
$var wire 1 / devoe $end
$var wire 1 0 devclrn $end
$var wire 1 1 devpor $end
$var wire 1 2 ww_devoe $end
$var wire 1 3 ww_devclrn $end
$var wire 1 4 ww_devpor $end
$var wire 1 5 ww_CLK $end
$var wire 1 6 ww_RESET $end
$var wire 1 7 ww_LOAD $end
$var wire 1 8 ww_D [3] $end
$var wire 1 9 ww_D [2] $end
$var wire 1 : ww_D [1] $end
$var wire 1 ; ww_D [0] $end
$var wire 1 < ww_Q [3] $end
$var wire 1 = ww_Q [2] $end
$var wire 1 > ww_Q [1] $end
$var wire 1 ? ww_Q [0] $end
$var wire 1 @ \CLK~inputclkctrl_INCLK_bus\ [3] $end
$var wire 1 A \CLK~inputclkctrl_INCLK_bus\ [2] $end
$var wire 1 B \CLK~inputclkctrl_INCLK_bus\ [1] $end
$var wire 1 C \CLK~inputclkctrl_INCLK_bus\ [0] $end
$var wire 1 D \Q[0]~output_o\ $end
$var wire 1 E \Q[1]~output_o\ $end
$var wire 1 F \Q[2]~output_o\ $end
$var wire 1 G \Q[3]~output_o\ $end
$var wire 1 H \CLK~input_o\ $end
$var wire 1 I \CLK~inputclkctrl_outclk\ $end
$var wire 1 J \RESET~input_o\ $end
$var wire 1 K \D[0]~input_o\ $end
$var wire 1 L \LOAD~input_o\ $end
$var wire 1 M \counter~0_combout\ $end
$var wire 1 N \D[1]~input_o\ $end
$var wire 1 O \D[3]~input_o\ $end
$var wire 1 P \D[2]~input_o\ $end
$var wire 1 Q \counter~3_combout\ $end
$var wire 1 R \counter~4_combout\ $end
$var wire 1 S \counter~5_combout\ $end
$var wire 1 T \counter~6_combout\ $end
$var wire 1 U \counter~1_combout\ $end
$var wire 1 V \counter~2_combout\ $end
$var wire 1 W counter [3] $end
$var wire 1 X counter [2] $end
$var wire 1 Y counter [1] $end
$var wire 1 Z counter [0] $end
$var wire 1 [ \ALT_INV_CLK~inputclkctrl_outclk\ $end
$var wire 1 \ ALT_INV_counter [1] $end
$var wire 1 ] ALT_INV_counter [0] $end
$upscope $end
$upscope $end
$enddefinitions $end
#0
$dumpvars
0!
0&
0+
0,
1-
x.
1/
10
11
12
13
14
05
06
07
1D
1E
0F
0G
0H
0I
0J
0K
0L
1M
0N
1O
0P
1Q
1R
0S
0T
0U
1V
1[
1"
0#
0$
0%
18
09
0:
0;
0<
0=
1>
1?
0W
0X
0Y
0Z
1\
1]
1@
1A
1B
0C
0'
0(
1)
1*
$end
#10000
1!
1&
15
17
1L
1H
1C
0R
1T
1I
0[
#20000
0!
0&
05
07
0L
0H
0C
1R
0T
0I
1[
1Z
1X
1Y
0\
0]
0M
1F
0D
0E
1=
0?
0>
1(
0*
0)
#30000
1!
15
1H
1C
1I
0[
#40000
0!
05
0H
0C
0I
1[
0Z
1]
1M
1U
0V
1D
1?
1*
#50000
1!
0"
1#
1%
15
1;
19
08
0O
1P
1K
1H
1C
1I
0[
#60000
0!
05
0H
0C
0I
1[
1Z
0Y
1\
0]
0M
0D
1E
0?
1>
0*
1)
#70000
1!
15
1H
1C
1I
0[
#80000
0!
05
0H
0C
0I
1[
0Z
1]
1M
0Q
1S
0U
1V
1T
0R
1D
1?
1*
#90000
1!
15
1H
1C
1I
0[
#100000
0!
05
0H
0C
0I
1[
1Z
0X
1W
1Y
0\
0]
0M
1G
0F
0D
0E
1<
0=
0?
0>
0(
1'
0*
0)
#110000
1!
15
1H
1C
1I
0[
#120000
0!
05
0H
0C
0I
1[
0Z
1]
1M
1U
0V
1D
1?
1*
#130000
1!
15
1H
1C
1I
0[
#140000
0!
05
0H
0C
0I
1[
1Z
0Y
1\
0]
0M
0D
1E
0?
1>
0*
1)
#150000
1!
15
1H
1C
1I
0[
#160000
0!
1&
05
17
1L
0H
0C
1R
0T
1V
0I
1[
0Z
1X
0W
1Y
0\
1]
1Q
0S
0G
1F
1D
0E
0<
1=
1?
0>
1(
0'
1*
0)
#170000
1!
0&
15
07
0L
1H
1C
1M
0V
1I
0[
#180000
0!
05
0H
0C
0I
1[
1Z
0Y
1\
0]
0M
0D
1E
0?
1>
0*
1)
#190000
1!
15
1H
1C
1I
0[
#200000
0!
05
0H
0C
0I
1[
0Z
1]
1M
0Q
1S
0U
1V
1T
0R
1D
1?
1*
#210000
1!
15
1H
1C
1I
0[
#220000
0!
05
0H
0C
0I
1[
1Z
0X
1W
1Y
0\
0]
0M
1G
0F
0D
0E
1<
0=
0?
0>
0(
1'
0*
0)
#230000
1!
1$
15
1:
1N
1H
1C
1I
0[
#240000
0!
05
0H
0C
0I
1[
0Z
1]
1M
1U
0V
1D
1?
1*
#250000
1!
15
1H
1C
1I
0[
#260000
0!
05
0H
0C
0I
1[
1Z
0Y
1\
0]
0M
0D
1E
0?
1>
0*
1)
#270000
1!
1&
15
17
1L
1H
1C
1R
0T
1I
0[
#280000
0!
0&
0$
0#
0%
05
07
0;
0:
09
0P
0N
0K
0L
0H
0C
1T
0R
0I
1[
0Z
1]
1M
1Q
0U
1V
1R
1D
1?
1*
#290000
1!
15
1H
1C
1I
0[
#300000
0!
05
0H
0C
0I
1[
1Z
1X
1Y
0\
0]
0M
0Q
0S
1U
0V
0T
0R
1F
0D
0E
1=
0?
0>
1(
0*
0)
#310000
1!
15
1H
1C
1I
0[
#320000
0!
1+
05
16
1J
0H
0C
0I
1[
0Z
0X
0W
0Y
1\
1]
1Q
0U
0G
0F
1D
1E
0<
0=
1?
1>
0(
0'
1*
1)
#330000
1!
0+
15
06
0J
1H
1C
1M
1R
1V
1I
0[
#340000
0!
05
0H
0C
0I
1[
1Z
1X
1Y
0\
0]
0M
1F
0D
0E
1=
0?
0>
1(
0*
0)
#350000
1!
15
1H
1C
1I
0[
#360000
0!
05
0H
0C
0I
1[
0Z
1]
1M
1U
0V
1D
1?
1*
#370000
1!
15
1H
1C
1I
0[
#380000
0!
05
0H
0C
0I
1[
1Z
0Y
1\
0]
0M
0D
1E
0?
1>
0*
1)
#390000
1!
15
1H
1C
1I
0[
#400000
0!
05
0H
0C
0I
1[
0Z
1]
1M
0Q
1S
0U
1V
1T
0R
1D
1?
1*
#410000
1!
15
1H
1C
1I
0[
#420000
0!
05
0H
0C
0I
1[
1Z
0X
1W
1Y
0\
0]
0M
1G
0F
0D
0E
1<
0=
0?
0>
0(
1'
0*
0)
#430000
1!
15
1H
1C
1I
0[
#440000
0!
05
0H
0C
0I
1[
0Z
1]
1M
1U
0V
1D
1?
1*
#450000
1!
15
1H
1C
1I
0[
#460000
0!
05
0H
0C
0I
1[
1Z
0Y
1\
0]
0M
0D
1E
0?
1>
0*
1)
#470000
1!
15
1H
1C
1I
0[
#480000
0!
05
0H
0C
0I
1[
0Z
1]
1M
1Q
0U
1V
1R
1D
1?
1*
#490000
1!
15
1H
1C
1I
0[
#500000
0!
05
0H
0C
0I
1[
1Z
1X
1Y
0\
0]
0M
0Q
0S
1U
0V
0T
0R
1F
0D
0E
1=
0?
0>
1(
0*
0)
#510000
1!
15
1H
1C
1I
0[
#520000
0!
05
0H
0C
0I
1[
0Z
0X
0W
0Y
1\
1]
1M
1Q
0U
1V
1R
0G
0F
1D
1E
0<
0=
1?
1>
0(
0'
1*
1)
#530000
1!
15
1H
1C
1I
0[
#540000
0!
05
0H
0C
0I
1[
1Z
1X
1Y
0\
0]
0M
1F
0D
0E
1=
0?
0>
1(
0*
0)
#550000
1!
15
1H
1C
1I
0[
#560000
0!
05
0H
0C
0I
1[
0Z
1]
1M
1U
0V
1D
1?
1*
#570000
1!
15
1H
1C
1I
0[
#580000
0!
05
0H
0C
0I
1[
1Z
0Y
1\
0]
0M
0D
1E
0?
1>
0*
1)
#590000
1!
15
1H
1C
1I
0[
#600000
0!
05
0H
0C
0I
1[
0Z
1]
1M
0Q
1S
0U
1V
1T
0R
1D
1?
1*
#610000
1!
15
1H
1C
1I
0[
#620000
0!
05
0H
0C
0I
1[
1Z
0X
1W
1Y
0\
0]
0M
1G
0F
0D
0E
1<
0=
0?
0>
0(
1'
0*
0)
#630000
1!
15
1H
1C
1I
0[
#640000
0!
05
0H
0C
0I
1[
0Z
1]
1M
1U
0V
1D
1?
1*
#650000
1!
15
1H
1C
1I
0[
#660000
0!
05
0H
0C
0I
1[
1Z
0Y
1\
0]
0M
0D
1E
0?
1>
0*
1)
#670000
1!
15
1H
1C
1I
0[
#680000
0!
05
0H
0C
0I
1[
0Z
1]
1M
1Q
0U
1V
1R
1D
1?
1*
#690000
1!
15
1H
1C
1I
0[
#700000
0!
05
0H
0C
0I
1[
1Z
1X
1Y
0\
0]
0M
0Q
0S
1U
0V
0T
0R
1F
0D
0E
1=
0?
0>
1(
0*
0)
#710000
1!
15
1H
1C
1I
0[
#720000
0!
05
0H
0C
0I
1[
0Z
0X
0W
0Y
1\
1]
1M
1Q
0U
1V
1R
0G
0F
1D
1E
0<
0=
1?
1>
0(
0'
1*
1)
#730000
1!
15
1H
1C
1I
0[
#740000
0!
05
0H
0C
0I
1[
1Z
1X
1Y
0\
0]
0M
1F
0D
0E
1=
0?
0>
1(
0*
0)
#750000
1!
15
1H
1C
1I
0[
#760000
0!
05
0H
0C
0I
1[
0Z
1]
1M
1U
0V
1D
1?
1*
#770000
1!
15
1H
1C
1I
0[
#780000
0!
05
0H
0C
0I
1[
1Z
0Y
1\
0]
0M
0D
1E
0?
1>
0*
1)
#790000
1!
15
1H
1C
1I
0[
#800000
0!
05
0H
0C
0I
1[
0Z
1]
1M
0Q
1S
0U
1V
1T
0R
1D
1?
1*
#810000
1!
15
1H
1C
1I
0[
#820000
0!
05
0H
0C
0I
1[
1Z
0X
1W
1Y
0\
0]
0M
1G
0F
0D
0E
1<
0=
0?
0>
0(
1'
0*
0)
#830000
1!
15
1H
1C
1I
0[
#840000
0!
05
0H
0C
0I
1[
0Z
1]
1M
1U
0V
1D
1?
1*
#850000
1!
15
1H
1C
1I
0[
#860000
0!
05
0H
0C
0I
1[
1Z
0Y
1\
0]
0M
0D
1E
0?
1>
0*
1)
#870000
1!
15
1H
1C
1I
0[
#880000
0!
05
0H
0C
0I
1[
0Z
1]
1M
1Q
0U
1V
1R
1D
1?
1*
#890000
1!
15
1H
1C
1I
0[
#900000
0!
05
0H
0C
0I
1[
1Z
1X
1Y
0\
0]
0M
0Q
0S
1U
0V
0T
0R
1F
0D
0E
1=
0?
0>
1(
0*
0)
#910000
1!
15
1H
1C
1I
0[
#920000
0!
05
0H
0C
0I
1[
0Z
0X
0W
0Y
1\
1]
1M
1Q
0U
1V
1R
0G
0F
1D
1E
0<
0=
1?
1>
0(
0'
1*
1)
#930000
1!
15
1H
1C
1I
0[
#940000
0!
05
0H
0C
0I
1[
1Z
1X
1Y
0\
0]
0M
1F
0D
0E
1=
0?
0>
1(
0*
0)
#950000
1!
15
1H
1C
1I
0[
#960000
0!
05
0H
0C
0I
1[
0Z
1]
1M
1U
0V
1D
1?
1*
#970000
1!
15
1H
1C
1I
0[
#980000
0!
05
0H
0C
0I
1[
1Z
0Y
1\
0]
0M
0D
1E
0?
1>
0*
1)
#990000
1!
15
1H
1C
1I
0[
