ANUL3/sem2/pdp/Lab1Test/simulation/qsim/Lab1Test.msim.vcd
$comment
	File created using the following command:
		vcd file Lab1Test.msim.vcd -direction
$end
$date
	Sun Jan 19 16:00:56 2025
$end
$version
	ModelSim Version 10.5b
$end
$timescale
	1ps
$end

$scope module Lab1Test_vlg_vec_tst $end
$var reg 1 ! X0 $end
$var reg 1 " X1 $end
$var reg 1 # X2 $end
$var reg 1 $ X3 $end
$var wire 1 % Y $end

$scope module i1 $end
$var wire 1 & gnd $end
$var wire 1 ' vcc $end
$var wire 1 ( unknown $end
$var tri1 1 ) devclrn $end
$var tri1 1 * devpor $end
$var tri1 1 + devoe $end
$var wire 1 , Y~output_o $end
$var wire 1 - X2~input_o $end
$var wire 1 . X0~input_o $end
$var wire 1 / X3~input_o $end
$var wire 1 0 X1~input_o $end
$var wire 1 1 inst4~0_combout $end
$upscope $end
$upscope $end
$enddefinitions $end
#0
$dumpvars
0!
0"
0#
0$
0%
0&
1'
x(
1)
1*
1+
0,
0-
0.
0/
00
01
$end
#30000
1!
1.
#60000
1"
0!
10
0.
11
1,
1%
#90000
1!
1.
01
0,
0%
#120000
1#
0"
0!
1-
00
0.
11
1,
1%
#150000
1!
1.
01
0,
0%
#180000
1"
0!
10
0.
11
1,
1%
#210000
1!
1.
01
0,
0%
#240000
1$
0#
0"
0!
1/
0-
00
0.
11
1,
1%
#270000
1!
1.
01
0,
0%
#300000
1"
0!
10
0.
11
1,
1%
#330000
1!
1.
01
0,
0%
#360000
1#
0"
0!
1-
00
0.
11
1,
1%
#390000
1!
1.
01
0,
0%
#420000
1"
0!
10
0.
11
1,
1%
#450000
1!
1.
01
0,
0%
#480000
0$
0#
0"
0!
0/
0-
00
0.
#510000
1!
1.
#540000
1"
0!
10
0.
11
1,
1%
#570000
1!
1.
01
0,
0%
#600000
1#
0"
0!
1-
00
0.
11
1,
1%
#630000
1!
1.
01
0,
0%
#660000
1"
0!
10
0.
11
1,
1%
#690000
1!
1.
01
0,
0%
#720000
1$
0#
0"
0!
1/
0-
00
0.
11
1,
1%
#750000
1!
1.
01
0,
0%
#780000
1"
0!
10
0.
11
1,
1%
#810000
1!
1.
01
0,
0%
#840000
1#
0"
0!
1-
00
0.
11
1,
1%
#870000
1!
1.
01
0,
0%
#900000
1"
0!
10
0.
11
1,
1%
#930000
1!
1.
01
0,
0%
#960000
0$
0#
0"
0!
0/
0-
00
0.
#990000
1!
1.
