ANUL3/sem2/pdp/lab2_final/comportamental/simulation/qsim/comportamental.msim.vcd
$comment
	File created using the following command:
		vcd file comportamental.msim.vcd -direction
$end
$date
	Sat Mar 29 09:55:23 2025
$end
$version
	ModelSim Version 10.5b
$end
$timescale
	1ps
$end

$scope module lab2_vhd_vec_tst $end
$var wire 1 ! f $end
$var wire 1 " x [3] $end
$var wire 1 # x [2] $end
$var wire 1 $ x [1] $end
$var wire 1 % x [0] $end

$scope module i1 $end
$var wire 1 & gnd $end
$var wire 1 ' vcc $end
$var wire 1 ( unknown $end
$var wire 1 ) devoe $end
$var wire 1 * devclrn $end
$var wire 1 + devpor $end
$var wire 1 , ww_devoe $end
$var wire 1 - ww_devclrn $end
$var wire 1 . ww_devpor $end
$var wire 1 / ww_x [3] $end
$var wire 1 0 ww_x [2] $end
$var wire 1 1 ww_x [1] $end
$var wire 1 2 ww_x [0] $end
$var wire 1 3 ww_f $end
$var wire 1 4 \f~output_o\ $end
$var wire 1 5 \x[2]~input_o\ $end
$var wire 1 6 \x[0]~input_o\ $end
$var wire 1 7 \x[1]~input_o\ $end
$var wire 1 8 \x[3]~input_o\ $end
$var wire 1 9 \process_0~0_combout\ $end
$upscope $end
$upscope $end
$enddefinitions $end
#0
$dumpvars
0!
0&
1'
x(
1)
1*
1+
1,
1-
1.
03
04
05
06
07
08
09
0"
0#
0$
0%
0/
00
01
02
$end
#10000
1%
12
16
#20000
0%
1$
02
11
17
06
#30000
1%
12
16
#40000
0%
0$
1#
02
01
10
15
07
06
#50000
1%
12
16
#60000
0%
1$
02
11
17
06
19
14
13
1!
#70000
1%
12
16
#80000
0%
0$
0#
1"
02
01
00
1/
18
05
07
06
09
04
03
0!
#90000
1%
12
16
#100000
0%
1$
02
11
17
06
#110000
1%
12
16
19
14
13
1!
#120000
0%
0$
1#
02
01
10
15
07
06
#130000
1%
12
16
09
04
03
0!
#140000
0%
1$
02
11
17
06
19
14
13
1!
#150000
1%
12
16
