ANUL3/sem2/pdp/lab1_final/Lab1Test/simulation/qsim/Lab1Test.msim.vcd
$comment
	File created using the following command:
		vcd file Lab1Test.msim.vcd -direction
$end
$date
	Sat Apr 12 10:40:58 2025
$end
$version
	ModelSim Version 10.5b
$end
$timescale
	1ps
$end

$scope module Lab1Test_vlg_vec_tst $end
$var reg 1 ! X0 $end
$var reg 1 " X1 $end
$var reg 1 # X2 $end
$var reg 1 $ X3 $end
$var wire 1 % Y $end

$scope module i1 $end
$var wire 1 & gnd $end
$var wire 1 ' vcc $end
$var wire 1 ( unknown $end
$var tri1 1 ) devclrn $end
$var tri1 1 * devpor $end
$var tri1 1 + devoe $end
$var wire 1 , Y~output_o $end
$var wire 1 - X1~input_o $end
$var wire 1 . X0~input_o $end
$var wire 1 / X2~input_o $end
$var wire 1 0 X3~input_o $end
$var wire 1 1 inst4~0_combout $end
$upscope $end
$upscope $end
$enddefinitions $end
#0
$dumpvars
0!
0"
0#
0$
0%
0&
1'
x(
1)
1*
1+
0,
0-
0.
0/
00
01
$end
#10000
1!
1.
#20000
1"
0!
1-
0.
#30000
1!
1.
#40000
1#
0"
0!
1/
0-
0.
#50000
1!
1.
#60000
1"
0!
1-
0.
11
1,
1%
#70000
1!
1.
#80000
1$
0#
0"
0!
10
0/
0-
0.
01
0,
0%
#90000
1!
1.
#100000
1"
0!
1-
0.
#110000
1!
1.
11
1,
1%
#120000
1#
0"
0!
1/
0-
0.
#130000
1!
1.
01
0,
0%
#140000
1"
0!
1-
0.
11
1,
1%
#150000
1!
1.
