ANUL3/sem2/pdp/lab2_final/structural/simulation/qsim/structural.msim.vcd
$comment
	File created using the following command:
		vcd file structural.msim.vcd -direction
$end
$date
	Sat Mar 29 10:01:42 2025
$end
$version
	ModelSim Version 10.5b
$end
$timescale
	1ps
$end

$scope module lab2_vhd_vec_tst $end
$var wire 1 ! F $end
$var wire 1 " x0 $end
$var wire 1 # x1 $end
$var wire 1 $ x2 $end
$var wire 1 % x3 $end

$scope module i1 $end
$var wire 1 & gnd $end
$var wire 1 ' vcc $end
$var wire 1 ( unknown $end
$var wire 1 ) devoe $end
$var wire 1 * devclrn $end
$var wire 1 + devpor $end
$var wire 1 , ww_devoe $end
$var wire 1 - ww_devclrn $end
$var wire 1 . ww_devpor $end
$var wire 1 / ww_x0 $end
$var wire 1 0 ww_x1 $end
$var wire 1 1 ww_x2 $end
$var wire 1 2 ww_x3 $end
$var wire 1 3 ww_F $end
$var wire 1 4 \F~output_o\ $end
$var wire 1 5 \x3~input_o\ $end
$var wire 1 6 \x2~input_o\ $end
$var wire 1 7 \x0~input_o\ $end
$var wire 1 8 \x1~input_o\ $end
$var wire 1 9 \OR3_0|F~0_combout\ $end
$upscope $end
$upscope $end
$enddefinitions $end
#0
$dumpvars
0!
0"
0#
0$
0%
0&
1'
x(
1)
1*
1+
1,
1-
1.
0/
00
01
02
03
04
05
06
07
08
09
$end
#10000
1%
12
15
#20000
0%
1$
02
11
16
05
#30000
1%
12
15
#40000
0%
0$
1#
02
01
10
18
06
05
#50000
1%
12
15
#60000
0%
1$
02
11
16
05
19
14
13
1!
#70000
1%
12
15
#80000
0%
0$
0#
1"
02
01
00
1/
17
08
06
05
09
04
03
0!
#90000
1%
12
15
#100000
0%
1$
02
11
16
05
#110000
1%
12
15
19
14
13
1!
#120000
0%
0$
1#
02
01
10
18
06
05
#130000
1%
12
15
09
04
03
0!
#140000
0%
1$
02
11
16
05
19
14
13
1!
#150000
1%
12
15
